https://www.ciptamedia.org/hibahcme/0677,https://www.ciptamedia.org/hibahcme/677
https://www.ciptamedia.org/hibahcme/0824,https://www.ciptamedia.org/hibahcme/824 
https://www.ciptamedia.org/hibahcme/0167,https://www.ciptamedia.org/hibahcme/167
https://www.ciptamedia.org/hibahcme/0965,https://www.ciptamedia.org/hibahcme/965
https://www.ciptamedia.org/hibahcme/0079,https://www.ciptamedia.org/hibahcme/079
https://www.ciptamedia.org/hibahcme/0923,https://www.ciptamedia.org/hibahcme/923
https://www.ciptamedia.org/hibahcme/0809,https://www.ciptamedia.org/hibahcme/809
https://www.ciptamedia.org/hibahcme/0594,https://www.ciptamedia.org/hibahcme/594
https://www.ciptamedia.org/hibahcme/0940,https://www.ciptamedia.org/hibahcme/940
https://www.ciptamedia.org/hibahcme/0836,https://www.ciptamedia.org/hibahcme/836
https://www.ciptamedia.org/hibahcme/0510,https://www.ciptamedia.org/hibahcme/510
